<?xml version="1.0" encoding="UTF-8" standalone="no"?>
<svg
   xmlns:osb="http://www.openswatchbook.org/uri/2009/osb"
   xmlns:dc="http://purl.org/dc/elements/1.1/"
   xmlns:cc="http://creativecommons.org/ns#"
   xmlns:rdf="http://www.w3.org/1999/02/22-rdf-syntax-ns#"
   xmlns:svg="http://www.w3.org/2000/svg"
   xmlns="http://www.w3.org/2000/svg"
   xmlns:xlink="http://www.w3.org/1999/xlink"
   xmlns:sodipodi="http://sodipodi.sourceforge.net/DTD/sodipodi-0.dtd"
   xmlns:inkscape="http://www.inkscape.org/namespaces/inkscape"
   sodipodi:docname="icon-launcher-octoslush_tc3.svg"
   id="svg116"
   xml:space="preserve"
   enable-background="new 0 0 86 86"
   viewBox="0 0 86 86"
   height="86px"
   width="86px"
   y="0px"
   x="0px"
   version="1.1"
   inkscape:version="1.0.2 (e86c870879, 2021-01-15, custom)"
   inkscape:export-filename="D:\gantner\Nextcloud-PNO\_transfer\icon-launcher-octoslush_tc_512.png"
   inkscape:export-xdpi="571.53003"
   inkscape:export-ydpi="571.53003"><metadata
   id="metadata122"><rdf:RDF><cc:Work
       rdf:about=""><dc:format>image/svg+xml</dc:format><dc:type
         rdf:resource="http://purl.org/dc/dcmitype/StillImage" /><dc:title /></cc:Work></rdf:RDF></metadata><defs
   id="defs120"><linearGradient
     id="linearGradient2963"
     osb:paint="gradient"><stop
       style="stop-color:#cccccc;stop-opacity:1;"
       offset="0"
       id="stop2959" /><stop
       style="stop-color:#cccccc;stop-opacity:0;"
       offset="1"
       id="stop2961" /></linearGradient><linearGradient
     inkscape:collect="always"
     id="linearGradient2953"><stop
       style="stop-color:#000000;stop-opacity:1;"
       offset="0"
       id="stop2949" /><stop
       style="stop-color:#000000;stop-opacity:0;"
       offset="1"
       id="stop2951" /></linearGradient><filter
     style="color-interpolation-filters:sRGB;"
     inkscape:menu-tooltip="Fades hue progressively to white"
     inkscape:menu="Color"
     inkscape:label="Hue to White"
     id="filter1824"><feColorMatrix
       values="1 0 0 0 0 1 0 0 0 0 1 0 0 0 0 0 0 0 0 1 "
       type="matrix"
       result="r"
       in="SourceGraphic"
       id="feColorMatrix1796" /><feColorMatrix
       values="0 1 0 0 0 0 1 0 0 0 0 1 0 0 0 0 0 0 0 1 "
       type="matrix"
       result="g"
       in="SourceGraphic"
       id="feColorMatrix1798" /><feColorMatrix
       values="0 0 1 0 0 0 0 1 0 0 0 0 1 0 0 0 0 0 0 1 "
       type="matrix"
       result="b"
       in="SourceGraphic"
       id="feColorMatrix1800" /><feBlend
       result="minrg"
       in="r"
       mode="darken"
       in2="g"
       id="feBlend1802" /><feBlend
       result="p"
       in="minrg"
       mode="darken"
       in2="b"
       id="feBlend1804" /><feBlend
       result="maxrg"
       in="r"
       mode="lighten"
       in2="g"
       id="feBlend1806" /><feBlend
       result="q"
       in="maxrg"
       mode="lighten"
       in2="b"
       id="feBlend1808" /><feComponentTransfer
       result="q2"
       in="q"
       id="feComponentTransfer1812"><feFuncR
         slope="0"
         type="linear"
         id="feFuncR1810" /></feComponentTransfer><feBlend
       result="pq"
       in="p"
       mode="lighten"
       in2="q2"
       id="feBlend1814" /><feColorMatrix
       values="-1 1 0 0 0 -1 1 0 0 0 -1 1 0 0 0 0 0 0 0 1 "
       type="matrix"
       result="qminp"
       in="pq"
       id="feColorMatrix1816" /><feComposite
       k3="1"
       operator="arithmetic"
       result="qminpc"
       in="qminp"
       in2="qminp"
       id="feComposite1818" /><feBlend
       result="result2"
       in2="SourceGraphic"
       mode="screen"
       id="feBlend1820" /><feComposite
       operator="in"
       in="result2"
       in2="SourceGraphic"
       result="result1"
       id="feComposite1822" /></filter><linearGradient
     inkscape:collect="always"
     xlink:href="#linearGradient2953"
     id="linearGradient2957"
     x1="11.734"
     y1="49.167999"
     x2="74.266998"
     y2="49.167999"
     gradientUnits="userSpaceOnUse" /><radialGradient
     inkscape:collect="always"
     xlink:href="#SVGID_1_"
     id="radialGradient2995"
     cx="43.000004"
     cy="43.0005"
     fx="43.000004"
     fy="43.0005"
     r="51.240002"
     gradientTransform="matrix(1,0,0,1.0000117,0,-5.0260188e-4)"
     gradientUnits="userSpaceOnUse" /></defs><sodipodi:namedview
   pagecolor="#ffffff"
   bordercolor="#666666"
   borderopacity="1"
   objecttolerance="10"
   gridtolerance="10"
   guidetolerance="10"
   inkscape:pageopacity="0"
   inkscape:pageshadow="2"
   inkscape:window-width="1720"
   inkscape:window-height="1160"
   id="namedview118"
   showgrid="false"
   inkscape:zoom="5.6395349"
   inkscape:cx="17.514446"
   inkscape:cy="23.258215"
   inkscape:window-x="1217"
   inkscape:window-y="5"
   inkscape:window-maximized="0"
   inkscape:current-layer="Layer_1"
   inkscape:document-rotation="0" />
<g
   id="Layer_2"
   display="none">
</g>
<g
   id="Layer_1">
	
		<linearGradient
   id="SVGID_1_"
   gradientUnits="userSpaceOnUse"
   x1="-612"
   y1="-49.299999"
   x2="-612"
   y2="-134.7"
   gradientTransform="translate(655,135)"
   xlink:href="#SVGID_2_">
		<stop
   offset="0"
   style="stop-color:#008075"
   id="stop3" />
		<stop
   offset="1"
   style="stop-color:#00BFAF"
   id="stop5" />
	</linearGradient>
	<path
   fill="url(#SVGID_1_)"
   d="M 43,0.3 C 19.419,0.3 0.3,19.417 0.3,43 v 39.285 c 0,1.879 1.538,3.416 3.416,3.416 H 43 82.284 c 1.879,0 3.416,-1.537 3.416,-3.416 V 43 C 85.7,19.417 66.583,0.3 43,0.3 Z"
   id="path8"
   style="mix-blend-mode:normal;fill:url(#radialGradient2995);fill-opacity:1;paint-order:stroke fill markers;filter:url(#filter1824);opacity:0.8" />
	<g
   id="g17"
   style="fill:#0000ff;stroke:#000000;stroke-width:0.2;stroke-miterlimit:4;stroke-dasharray:none;stroke-opacity:1">
		<linearGradient
   id="SVGID_2_"
   gradientUnits="userSpaceOnUse"
   x1="43.0005"
   y1="85.699997"
   x2="43.0005"
   y2="12.6351"
   style="stroke:url(#linearGradient2957)">
			<stop
   offset="0"
   style="stop-color:#CC4100;stroke:url(#linearGradient2957)"
   id="stop10" />
			<stop
   offset="0.7204"
   style="stop-color:#FF5100;stroke:url(#linearGradient2957)"
   id="stop12" />
		</linearGradient>
		<path
   fill="url(#SVGID_2_)"
   d="M 73.767,43.403 C 73.767,26.412 59.992,12.636 43,12.636 c -16.991,0 -30.766,13.776 -30.766,30.767 0,1.853 0.173,3.665 0.487,5.428 L 16.029,85.7 H 69.97 l 3.309,-36.869 c 0.314,-1.763 0.488,-3.575 0.488,-5.428 z"
   id="path15"
   style="fill:#0000ff;stroke:#5c5c5c;stroke-width:0.2;stroke-miterlimit:4;stroke-dasharray:none;stroke-opacity:1" />
	</g>
	<g
   id="g27">
		<path
   fill="#ff7636"
   d="M 3.047,55.888 C 1.742,56.238 0.864,57.942 0.3,60.389 v 21.896 c 0,1.879 1.538,3.416 3.416,3.416 H 20.631 C 20.812,84.403 20.744,83.048 20.382,81.703 18.944,76.334 8.416,54.45 3.047,55.888 Z"
   id="path19"
   style="fill:#0000ff" />
		<path
   fill="#ff7636"
   d="m 29.466,56.01 c -5.367,0.48 -7.66,23.918 -7.183,29.287 0.012,0.137 0.039,0.268 0.057,0.403 H 41.675 C 41.766,85.004 41.79,84.289 41.724,83.56 41.246,78.193 34.836,55.531 29.466,56.01 Z"
   id="path21"
   style="fill:#008000;fill-opacity:1" />
		<path
   fill="#ff7636"
   d="M 64.079,85.297 C 64.557,79.929 62.265,56.49 56.897,56.01 51.528,55.531 45.118,78.191 44.638,83.56 c -0.065,0.729 -0.042,1.444 0.049,2.14 h 19.336 c 0.018,-0.135 0.044,-0.266 0.056,-0.403 z"
   id="path23"
   style="fill:#cc0000;fill-opacity:1" />
		<path
   fill="#ff7636"
   d="M 85.7,82.284 V 59.063 C 85.143,57.339 84.369,56.17 83.316,55.887 77.947,54.45 67.42,76.334 65.98,81.702 c -0.36,1.346 -0.43,2.7 -0.247,3.998 h 16.552 c 1.878,0 3.415,-1.537 3.415,-3.416 z"
   id="path25"
   style="fill:#939393;fill-opacity:1" />
	</g>
	<circle
   opacity="0.3"
   cx="28.683001"
   cy="39.402"
   r="6.4654741"
   id="circle29"
   style="fill:#ff00ff" />
	<circle
   opacity="0.3"
   id="circle31"
   style="fill:#00ffff"
   r="6.6427937"
   cy="39.402"
   cx="57.449001" />
	<g
   id="g113"><path
   fill="#00ff14"
   d="M 31.695514,73.184558 25.188142,70.40183 c -0.338078,-0.144632 -0.615411,0.03327 -0.615411,0.395208 v 0.330485 0.237197 0.330485 c 0,0.361943 0.276971,0.776315 0.615049,0.921309 l 4.35235,1.86467 c 0.06834,0.02927 0.11896,0.06292 0.159457,0.09799 -0.0405,0.03543 -0.09148,0.06906 -0.159457,0.09799 l -4.35235,1.864672 c -0.338078,0.14463 -0.615049,0.55937 -0.615049,0.92203 v 0.33049 0.2202 0.33049 c 0,0.3623 0.277333,0.54092 0.615773,0.39629 l 6.505925,-2.768625 c 0.33844,-0.14391 0.615411,-0.557924 0.615411,-0.920225 v -0.330123 -0.286014 -0.33048 c 3.61e-4,-0.362307 -0.27661,-0.776317 -0.614326,-0.921311 z"
   id="path14"
   style="fill:#00ff00;stroke-width:0.361581" /><path
   fill="#00ff14"
   d="m 39.728395,80.198866 h -6.395643 c -0.369174,0 -0.670732,0.33808 -0.670732,0.75064 v 0.28746 0.0336 0.28746 c 0,0.41293 0.301558,0.75101 0.670732,0.75101 h 6.395643 c 0.369174,0 0.670733,-0.33808 0.670733,-0.75101 v -0.28746 -0.0336 -0.28746 c 3.61e-4,-0.41256 -0.301559,-0.75064 -0.670733,-0.75064 z"
   id="path16"
   style="fill:#00ff00;stroke-width:0.361581" />
		<path
   fill="#ff9f73"
   d="M 10.231,85.7 C 10.224,85.668 10.224,85.637 10.215,85.605 9.79,84.018 8.161,83.077 6.574,83.502 5.48,83.795 4.704,84.668 4.462,85.7 Z"
   id="path33"
   style="fill:#ffcc00" />
		<circle
   fill="#ff9f73"
   cx="5.4689999"
   cy="79.379997"
   r="2.5220001"
   id="circle35"
   style="fill:#ffcc00" />
		<circle
   fill="#ff9f73"
   cx="3.596"
   cy="72.388"
   r="2.0710001"
   id="circle37"
   style="fill:#ffcc00" />
		<path
   fill="#ff9f73"
   d="m 1.304,63.829 c -0.45,0.12 -0.8,0.419 -1.004,0.799 v 1.534 c 0.348,0.647 1.101,0.998 1.842,0.799 0.866,-0.232 1.377,-1.12 1.146,-1.984 C 3.056,64.111 2.17,63.597 1.304,63.829 Z"
   id="path39"
   style="fill:#ffcc00" />
		<path
   fill="#ff9f73"
   d="m 14.954,85.7 c -0.531,-0.315 -1.183,-0.427 -1.826,-0.254 -0.211,0.057 -0.403,0.148 -0.584,0.254 z"
   id="path41" />
		<path
   fill="#ff9f73"
   d="m 12.967,80.692 c 0.323,1.06 -0.213,2.156 -1.204,2.448 -0.986,0.292 -2.05,-0.331 -2.376,-1.392 -0.324,-1.061 0.213,-2.157 1.202,-2.449 0.989,-0.292 2.053,0.331 2.378,1.393 z"
   id="path43"
   style="fill:#ffcc00" />
		<path
   fill="#ff9f73"
   d="M 9.9,74.258 C 10.207,75.115 9.885,76.006 9.174,76.251 8.465,76.496 7.635,76 7.325,75.145 7.015,74.289 7.341,73.397 8.05,73.153 8.762,72.907 9.589,73.404 9.9,74.258 Z"
   id="path45"
   style="fill:#ffcc00" />
		
			<ellipse
   transform="matrix(0.9105,-0.4135,0.4135,0.9105,-27.6523,8.6028)"
   fill="#ff9f73"
   cx="6.0479999"
   cy="68.182999"
   rx="0.86299998"
   ry="1.294"
   id="ellipse47"
   style="fill:#ffcc00" />
		<path
   fill="#ff9f73"
   d="M 0.996,81.869 C 0.735,81.932 0.5,82.055 0.3,82.217 v 0.067 c 0,1.464 0.939,2.71 2.24,3.193 0.599,-0.45 0.91,-1.266 0.721,-2.089 -0.25,-1.08 -1.264,-1.76 -2.265,-1.519 z"
   id="path49"
   style="fill:#ffcc00" />
		<path
   fill="#ff9f73"
   d="m 0.3,75.265 v 3.255 c 0.131,0.02 0.263,0.028 0.398,0.001 C 1.435,78.378 1.905,77.534 1.746,76.639 1.599,75.815 0.973,75.241 0.3,75.265 Z"
   id="path51"
   style="fill:#ffcc00" />
		
		
		
		
		
		
		
			
		
		
		
			
		<path
   fill="#ff9f73"
   d="M 58.227,85.7 C 57.908,84.591 56.94,83.733 55.721,83.624 54.322,83.499 53.068,84.397 52.696,85.7 Z"
   id="path73" />
		<circle
   fill="#ff9f73"
   cx="56.088001"
   cy="79.502998"
   r="2.4449999"
   id="circle75" />
		<circle
   fill="#ff9f73"
   cx="56.714001"
   cy="72.510002"
   r="2.0090001"
   id="circle77" />
		<circle
   fill="#ff9f73"
   cx="57.338001"
   cy="65.516998"
   r="1.571"
   id="circle79" />
		<path
   fill="#ff9f73"
   d="m 62.48,83.196 c -0.059,1.074 -0.914,1.892 -1.913,1.829 -0.995,-0.064 -1.757,-0.986 -1.701,-2.06 0.06,-1.075 0.916,-1.894 1.911,-1.83 0.999,0.064 1.758,0.986 1.703,2.061 z"
   id="path81" />
		<path
   fill="#ff9f73"
   d="m 61.83,76.314 c -0.004,0.882 -0.596,1.586 -1.325,1.573 -0.726,-0.015 -1.316,-0.742 -1.314,-1.624 0.002,-0.882 0.597,-1.586 1.325,-1.572 0.728,0.015 1.315,0.742 1.314,1.623 z"
   id="path83" />
		
			<ellipse
   transform="matrix(0.9971,-0.0757,0.0757,0.9971,-5.0866,4.7665)"
   fill="#ff9f73"
   cx="60.347"
   cy="69.498001"
   rx="0.83600003"
   ry="1.255"
   id="ellipse85" />
		<path
   fill="#ff9f73"
   d="m 49.146,82.004 c -0.133,1.067 0.563,2.025 1.556,2.139 0.992,0.115 1.906,-0.658 2.039,-1.725 0.133,-1.068 -0.565,-2.025 -1.557,-2.139 -0.991,-0.114 -1.904,0.658 -2.038,1.725 z"
   id="path87" />
		<path
   fill="#ff9f73"
   d="m 51.004,75.348 c -0.153,0.868 0.304,1.666 1.025,1.781 0.719,0.115 1.43,-0.497 1.583,-1.366 0.152,-0.868 -0.306,-1.666 -1.027,-1.781 -0.719,-0.114 -1.427,0.497 -1.581,1.366 z"
   id="path89" />
		
			<ellipse
   transform="matrix(-0.968,-0.2508,0.2508,-0.968,88.3449,149.0626)"
   fill="#ff9f73"
   cx="53.671001"
   cy="68.902"
   rx="0.83700001"
   ry="1.2539999"
   id="ellipse91" />
		<path
   fill="#ff9f73"
   d="m 85.7,64.176 c -0.18,-0.157 -0.394,-0.281 -0.641,-0.347 -0.866,-0.232 -1.754,0.282 -1.985,1.147 -0.23,0.865 0.28,1.753 1.147,1.984 0.54,0.144 1.088,-10e-4 1.48,-0.341 v -2.443 z"
   id="path93"
   style="fill:#cccccc" />
		<path
   fill="#ff9f73"
   d="M 85.7,82.284 V 81.989 C 85.594,81.94 85.482,81.898 85.365,81.87 84.364,81.628 83.35,82.308 83.1,83.39 c -0.176,0.767 0.086,1.525 0.608,1.988 1.171,-0.544 1.992,-1.724 1.992,-3.094 z"
   id="path95"
   style="fill:#cccccc" />
		<path
   fill="#ff9f73"
   d="m 85.7,75.304 c -0.524,0.152 -0.963,0.663 -1.084,1.336 -0.158,0.895 0.313,1.739 1.047,1.882 0.013,0.003 0.024,10e-4 0.037,0.003 z"
   id="path97"
   style="fill:#cccccc" />
		<path
   fill="#ff9f73"
   d="m 71.409,85.7 h 2.409 C 73.638,85.594 73.447,85.503 73.235,85.446 72.59,85.273 71.939,85.385 71.409,85.7 Z"
   id="path99"
   style="fill:#cccccc" />
		<path
   fill="#ff9f73"
   d="m 73.396,80.691 c -0.326,1.061 0.212,2.157 1.201,2.449 0.987,0.291 2.053,-0.331 2.377,-1.392 0.325,-1.061 -0.214,-2.157 -1.201,-2.45 -0.989,-0.291 -2.053,0.332 -2.377,1.393 z"
   id="path101"
   style="fill:#cccccc" />
		<path
   fill="#ff9f73"
   d="m 76.464,74.258 c -0.312,0.855 0.014,1.747 0.726,1.992 0.71,0.244 1.538,-0.252 1.848,-1.107 0.31,-0.855 -0.015,-1.747 -0.726,-1.991 -0.711,-0.245 -1.54,0.251 -1.848,1.106 z"
   id="path103"
   style="fill:#cccccc" />
		
			<ellipse
   transform="matrix(-0.9104,-0.4137,0.4137,-0.9104,125.2277,163.485)"
   fill="#ff9f73"
   cx="80.316002"
   cy="68.182999"
   rx="0.86299998"
   ry="1.293"
   id="ellipse105"
   style="fill:#cccccc" />
		<path
   fill="#ff9f73"
   d="m 76.145,85.604 c -0.008,0.032 -0.008,0.064 -0.016,0.096 h 5.77 c -0.242,-1.031 -1.016,-1.905 -2.111,-2.198 -1.587,-0.425 -3.218,0.516 -3.643,2.102 z"
   id="path107"
   style="fill:#cccccc" />
		<circle
   fill="#ff9f73"
   cx="80.890999"
   cy="79.379997"
   r="2.5220001"
   id="circle109"
   style="fill:#cccccc" />
		<circle
   fill="#ff9f73"
   cx="82.765999"
   cy="72.387001"
   r="2.0710001"
   id="circle111"
   style="fill:#cccccc" />
	<g
   id="g1009"
   transform="translate(-3.446977,-43.57683)"><path
     d="m 60.284181,99.500707 c 2.761868,0.01204 3.581897,4.411943 4.912998,8.226913 0,0 -1.959498,0.308 -1.996889,0.23721 -0.53984,-1.62552 -0.687997,-4.85089 -2.977711,-4.90077 -2.289714,-0.0499 -5.46788,8.37671 -6.424817,11.27335 -0.956938,2.89664 -3.562428,13.22308 -3.491265,14.95052 l -2.658937,-0.0988 c -0.0075,-2.88288 0.134666,-0.90424 0.360839,-3.51265 2.563079,-10.44415 7.729591,-26.187077 12.275782,-26.175733 z"
     style="fill:#040404;stroke-width:0.071439"
     sodipodi:nodetypes="ccczzcccc"
     id="path5" /></g></g>
<circle
   opacity="0.3"
   cx="28.792267"
   cy="39.121132"
   r="2.5422783"
   id="circle29-0"
   style="fill:#ff00ff;stroke-width:0.393208" /><path
   opacity="0.9"
   fill="#f4f3c5"
   d="m 27.253198,46.749141 0.238509,-0.575492 c 0.09953,-0.240891 0.345718,-0.387543 0.60514,-0.360542 0.457693,0.04765 0.920945,0.04738 1.377315,-2.65e-4 0.259421,-0.02727 0.506136,0.119652 0.605934,0.360543 l 0.238509,0.576021 c 0.197213,0.475959 0.746233,0.703349 1.222721,0.505871 l 1.023391,-0.423809 c 0.461929,-0.191654 0.69779,-0.760264 0.506666,-1.223251 L 32.832609,45.03299 c -0.0998,-0.241156 -0.02991,-0.518843 0.173124,-0.682966 0.356307,-0.288805 0.684025,-0.616523 0.974418,-0.973889 0.164389,-0.202508 0.442075,-0.272657 0.682966,-0.173124 l 0.575492,0.238509 c 0.476488,0.197477 1.024979,-0.02965 1.222457,-0.506666 l 0.42381,-1.023126 c 0.197742,-0.476753 -0.02938,-1.025243 -0.506401,-1.222721 l -0.575492,-0.238244 c -0.240891,-0.0998 -0.387544,-0.345719 -0.360543,-0.60514 0.04765,-0.457693 0.04738,-0.920945 -2.64e-4,-1.377315 -0.0278,-0.259421 0.119386,-0.505872 0.360542,-0.605934 l 0.576021,-0.238244 c 0.46087,-0.19086 0.697261,-0.760528 0.506137,-1.223251 l -0.42381,-1.023126 C 36.263588,34.90153 35.715097,34.674139 35.23808,34.871352 l -0.575757,0.238244 c -0.240891,0.0998 -0.518842,0.02965 -0.682966,-0.173124 -0.289069,-0.356307 -0.616787,-0.68429 -0.973889,-0.974153 -0.202242,-0.164389 -0.272657,-0.442075 -0.172859,-0.682966 l 0.238509,-0.575492 c 0.197478,-0.476753 -0.02965,-1.025243 -0.506666,-1.222721 l -1.02339,-0.42381 c -0.476753,-0.197478 -1.025244,0.02965 -1.222722,0.506401 l -0.238509,0.575492 c -0.09953,0.240891 -0.345718,0.387544 -0.605139,0.360543 -0.457429,-0.04765 -0.921211,-0.04738 -1.377316,2.64e-4 -0.259421,0.02727 -0.506136,-0.119651 -0.605934,-0.360542 L 27.252933,31.563466 C 27.05572,31.087508 26.5067,30.860117 26.030212,31.057595 l -1.023391,0.42381 c -0.461399,0.191389 -0.69779,0.759998 -0.506401,1.22325 l 0.238245,0.575492 c 0.06141,0.147976 0.0585,0.309982 0,0.451075 -0.03653,0.08841 -0.09477,0.168624 -0.173124,0.231891 -0.356308,0.288805 -0.684026,0.616523 -0.974419,0.973624 -0.164388,0.202507 -0.442075,0.272657 -0.682966,0.173124 l -0.575492,-0.238509 c -0.476752,-0.197478 -1.025243,0.02965 -1.222721,0.506666 l -0.42381,1.023126 c -0.197478,0.476753 0.02965,1.025243 0.506666,1.222721 l 0.575227,0.238244 c 0.240891,0.0998 0.387544,0.345719 0.360543,0.60514 -0.04738,0.457693 -0.04738,0.920946 5.29e-4,1.377315 0.027,0.259421 -0.119916,0.505871 -0.360543,0.605934 l -0.576286,0.238244 c -0.461134,0.191125 -0.69726,0.760528 -0.506136,1.223251 l 0.42381,1.023126 c 0.197478,0.476488 0.746233,0.703614 1.223251,0.506401 l 0.575492,-0.238244 c 0.240891,-0.0998 0.518842,-0.02965 0.682966,0.173388 0.288805,0.356307 0.616522,0.684025 0.973889,0.974154 0.202242,0.164388 0.272657,0.442075 0.172859,0.682966 l -0.238244,0.575492 c -0.197478,0.476753 0.02965,1.025243 0.506665,1.222721 l 1.023126,0.42381 c 0.477283,0.197213 1.025773,-0.02991 1.223251,-0.506666 z m -1.947513,-9.034214 c 0.796265,-1.921835 2.999493,-2.834574 4.921328,-2.038575 1.9221,0.796 2.834575,2.999493 2.038575,4.921593 -0.796,1.921835 -2.999492,2.834574 -4.921328,2.038574 -1.92157,-0.796264 -2.834574,-2.999756 -2.038575,-4.921592 z"
   id="path10"
   style="fill:#483737;stroke-width:0.264716" /><path
   opacity="0.9"
   fill="#f4f3c5"
   d="m 56.438093,44.583662 0.163455,-0.394398 c 0.06821,-0.165088 0.236929,-0.265592 0.414717,-0.247088 0.313667,0.03266 0.631144,0.03247 0.943905,-1.81e-4 0.177787,-0.01869 0.346866,0.082 0.41526,0.247088 l 0.163456,0.39476 c 0.135155,0.326186 0.51141,0.482021 0.837958,0.346685 l 0.701354,-0.290446 c 0.31657,-0.131345 0.478211,-0.521026 0.347229,-0.838322 L 60.26179,43.407544 c -0.06839,-0.165269 -0.0205,-0.355575 0.118646,-0.468052 0.244185,-0.197924 0.468778,-0.422517 0.667791,-0.667428 0.112659,-0.138783 0.302964,-0.186858 0.468052,-0.118646 l 0.394398,0.163456 c 0.326548,0.135335 0.702441,-0.02032 0.837777,-0.34723 l 0.290447,-0.701172 c 0.135517,-0.326729 -0.02014,-0.702622 -0.347048,-0.837958 L 62.297455,40.26724 c -0.165088,-0.06839 -0.265593,-0.236929 -0.247088,-0.414716 0.03265,-0.313668 0.03247,-0.631145 -1.81e-4,-0.943906 -0.01905,-0.177787 0.08182,-0.346685 0.247087,-0.41526 l 0.394761,-0.163274 c 0.315844,-0.130801 0.477848,-0.521207 0.346867,-0.838322 l -0.290447,-0.701171 c -0.135336,-0.326367 -0.511229,-0.482203 -0.83814,-0.347048 l -0.394579,0.163274 c -0.165088,0.06839 -0.355574,0.02032 -0.468052,-0.118646 -0.198106,-0.244186 -0.422699,-0.46896 -0.667429,-0.667609 -0.138601,-0.11266 -0.186858,-0.302965 -0.118464,-0.468053 l 0.163456,-0.394397 c 0.135336,-0.32673 -0.02032,-0.702623 -0.34723,-0.837959 l -0.701352,-0.290447 c -0.32673,-0.135336 -0.702623,0.02032 -0.83796,0.347049 l -0.163455,0.394397 c -0.06821,0.165088 -0.236929,0.265593 -0.414716,0.247089 -0.313486,-0.03266 -0.631327,-0.03247 -0.943906,1.81e-4 -0.177787,0.01869 -0.346866,-0.082 -0.41526,-0.247088 l -0.163456,-0.394761 c -0.135154,-0.326185 -0.51141,-0.482021 -0.837958,-0.346685 L 54.8986,34.120335 c -0.316208,0.131163 -0.478212,0.520844 -0.347049,0.838321 l 0.163275,0.394398 c 0.04209,0.101411 0.04009,0.212437 0,0.309132 -0.02504,0.06059 -0.06495,0.115561 -0.118646,0.15892 -0.244186,0.197924 -0.468778,0.422517 -0.667791,0.667246 -0.112659,0.138783 -0.302964,0.186858 -0.468052,0.118646 l -0.394398,-0.163455 c -0.326729,-0.135337 -0.702622,0.02032 -0.837959,0.347229 l -0.290446,0.701172 c -0.135336,0.326729 0.02032,0.702622 0.347229,0.837958 l 0.394217,0.163274 c 0.165088,0.0684 0.265592,0.236929 0.247088,0.414717 -0.03247,0.313667 -0.03247,0.631145 3.62e-4,0.943905 0.0185,0.177787 -0.08218,0.346685 -0.247088,0.41526 L 52.2844,40.430332 c -0.316025,0.130983 -0.477848,0.521207 -0.346866,0.838322 l 0.290446,0.701172 c 0.135337,0.326548 0.511411,0.482202 0.838322,0.347048 L 53.4607,42.1536 c 0.165088,-0.0684 0.355574,-0.02032 0.468052,0.118826 0.197925,0.244186 0.422517,0.468778 0.667428,0.66761 0.138601,0.112659 0.186858,0.302964 0.118464,0.468052 l -0.163274,0.394398 c -0.135336,0.32673 0.02032,0.702623 0.34723,0.837959 l 0.701171,0.290446 c 0.327093,0.135155 0.702986,-0.0205 0.838322,-0.347229 z m -1.334675,-6.191353 c 0.545698,-1.317077 2.055621,-1.942598 3.372698,-1.397082 1.317259,0.545517 1.942599,2.055621 1.397082,3.37288 -0.545517,1.317077 -2.05562,1.942598 -3.372698,1.397081 -1.316896,-0.545698 -1.942598,-2.055801 -1.397082,-3.372879 z"
   id="path10-8"
   style="stroke-width:0.181416" /></g>
</svg>
